@startuml

package lib {
    Observable -left- "*" Observer
    abstract Observable {
    }

    interface Observer {
    }
}

package complexityparser {

    package listener {
        TOSBuilder -- "1" TOS
        class TOSBuilder {
        }
    }

    package tos {
        package symbols {
            abstract ID {
                - string name
            }

            abstract Symbol {
                - int tier
                - int noBlock
            }

            VariableID -up-> ID
            class VariableID {
            }

            VariableSymbol -up-> Symbol
            class VariableSymbol {
            }
        }

        Block -- "*" Symbol
        (Block, Symbol) .. ID
        class Block {
            - String name;
            - int no;
            - int noParent;
        }

        TOS -- "instance" TOS
        TOS -- "*" Block
        class TOS {
            - int currentBlock
        }
    }

    package operators {
        Input -- "*" Tier
        class Input {
        }

        Operator -- "*" Input
        class Operator {
        }

        Operators -- "*" Operator
        Operators -- "instance" Operators
        class Operators {
        }


        class OperatorsBuilder {
        }
    }

    Model -up-> Observable
    class Model {
    }

    enum Tier {
    }
}

@enduml